^C:\USERS\AGGRE\DOCUMENTS\FALL2021\C++\PAM.CALCULATOR\PAM.CALCULATOR\DEBUG\MAIN.OBJ
C:\USERS\AGGRE\DOCUMENTS\FALL2021\C++\PAM.CALCULATOR\DEBUG\PAM.CALCULATOR.EXE
C:\USERS\AGGRE\DOCUMENTS\FALL2021\C++\PAM.CALCULATOR\PAM.CALCULATOR\DEBUG\PAM.CALCULATOR.ILK
C:\USERS\AGGRE\DOCUMENTS\FALL2021\C++\PAM.CALCULATOR\DEBUG\PAM.CALCULATOR.PDB
